<svg xmlns="http://www.w3.org/2000/svg" width="118.211" height="32" viewBox="0 0 118.211 32">
  <g id="Angular" transform="translate(-168.999 -269)">
    <path id="Path_581" data-name="Path 581" d="M150.6,47.962V33.416h1.87l8.889,11.706V33.416h1.778V47.962h-1.87l-8.889-11.821V47.962Zm27.013-.577a10.8,10.8,0,0,1-3.786.67q-7.9,0-7.9-7.573,0-7.169,7.619-7.18a13.5,13.5,0,0,1,4.063.6v1.616a10.567,10.567,0,0,0-3.856-.716c-3.971,0-5.957,1.893-5.957,5.633,0,4.04,1.962,6.049,5.864,6.049a10.166,10.166,0,0,0,2.078-.254V41.359h1.87Zm3-5.033V33.416h1.87v8.935c0,2.794,1.385,4.2,4.179,4.2,2.771,0,4.179-1.408,4.179-4.2V33.416h1.87v8.935c0,3.81-2.009,5.726-6.049,5.726S180.615,46.161,180.615,42.351Zm17.316-8.935V46.438h7.619v1.524H196.06V33.416Zm10.32,14.545h-1.962L213.515,31.5l7.227,16.462h-2.078l-1.87-4.571h-4.8l.508-1.524h3.671l-2.724-6.58-5.195,12.675Zm14.5,0V33.416h6.211c2.771,0,4.156,1.154,4.156,3.486,0,1.893-1.362,3.3-4.064,4.2l4.987,6.857h-2.47l-4.618-6.534V40.2c2.771-.439,4.179-1.5,4.179-3.209,0-1.339-.762-2.009-2.309-2.009h-4.156V47.962Z" transform="translate(53.17 244.773)" fill="#fff" fill-rule="evenodd"/>
    <path id="Subtraction_5" data-name="Subtraction 5" d="M14.892,32h0L2.287,25,0,5.31,14.892,0,30.177,5.218,27.706,24.912,14.892,32ZM10.967,19.648h8.289l2.031,4.71,3.3.069L14.915,3.74,5.634,24.381,9.1,24.312l1.87-4.664Zm7.111-2.724H12.191l2.747-6.557,3.14,6.557Z" transform="translate(168.999 269)" fill="#fff"/>
    <path id="Subtraction_4" data-name="Subtraction 4" d="M0,32H0V19.648H4.364L6.4,24.358l3.3.069L.023,3.74,0,3.791V0L15.285,5.218,12.814,24.912ZM3.187,16.923H0V10.477l.046-.11,3.14,6.557Z" transform="translate(183.891 269)" fill="#b5b5b5"/>
  </g>
</svg>
