<svg xmlns="http://www.w3.org/2000/svg" width="53.512" height="32" viewBox="0 0 53.512 32">
  <g id="aws" transform="translate(-1.668 -1.1)">
    <path id="Path_829" data-name="Path 829" d="M26.968,12.722a5.385,5.385,0,0,0,.2,1.584,9.527,9.527,0,0,0,.57,1.281.774.774,0,0,1,.125.409.7.7,0,0,1-.338.534l-1.121.747a.853.853,0,0,1-.463.16.819.819,0,0,1-.534-.249,5.506,5.506,0,0,1-.641-.836c-.178-.3-.356-.641-.552-1.05a6.575,6.575,0,0,1-5.232,2.456,4.877,4.877,0,0,1-3.56-1.281A4.572,4.572,0,0,1,14.1,13.06a4.582,4.582,0,0,1,1.62-3.666,6.475,6.475,0,0,1,4.36-1.388,14.091,14.091,0,0,1,1.887.142c.659.089,1.335.231,2.047.392V7.24a3.944,3.944,0,0,0-.836-2.848,4.1,4.1,0,0,0-2.9-.819,8.1,8.1,0,0,0-1.922.231,14.181,14.181,0,0,0-1.922.605,5.107,5.107,0,0,1-.623.231,1.092,1.092,0,0,1-.285.053c-.249,0-.374-.178-.374-.552V3.271a1.126,1.126,0,0,1,.125-.623,1.333,1.333,0,0,1,.5-.374,10.246,10.246,0,0,1,2.242-.8,10.79,10.79,0,0,1,2.776-.338,6.5,6.5,0,0,1,4.663,1.442,5.89,5.89,0,0,1,1.477,4.378v5.766Zm-7.226,2.705a5.768,5.768,0,0,0,1.833-.32,3.966,3.966,0,0,0,1.691-1.139,2.825,2.825,0,0,0,.605-1.139,6.389,6.389,0,0,0,.178-1.548v-.747a14.863,14.863,0,0,0-1.637-.3,13.411,13.411,0,0,0-1.673-.107,4.1,4.1,0,0,0-2.652.712,2.481,2.481,0,0,0-.872,2.047,2.3,2.3,0,0,0,2.527,2.545Zm14.291,1.922a.994.994,0,0,1-.676-.178,1.451,1.451,0,0,1-.374-.694L28.8,2.72a3.118,3.118,0,0,1-.16-.712.39.39,0,0,1,.427-.445h1.744a.987.987,0,0,1,.694.178,1.456,1.456,0,0,1,.356.694l2.99,11.782L37.628,2.435a1.248,1.248,0,0,1,.338-.694,1.224,1.224,0,0,1,.712-.178H40.1a1.071,1.071,0,0,1,.712.178,1.2,1.2,0,0,1,.338.694l2.812,11.924L47.043,2.435a1.526,1.526,0,0,1,.356-.694,1.161,1.161,0,0,1,.694-.178h1.655a.4.4,0,0,1,.445.445,1.775,1.775,0,0,1-.036.285,2.532,2.532,0,0,1-.125.445L45.744,16.495a1.365,1.365,0,0,1-.374.694,1.139,1.139,0,0,1-.676.178H43.163a1.071,1.071,0,0,1-.712-.178,1.262,1.262,0,0,1-.338-.712L39.355,5,36.614,16.459a1.389,1.389,0,0,1-.338.712,1.1,1.1,0,0,1-.712.178Zm22.87.481a11.777,11.777,0,0,1-2.741-.32,8.1,8.1,0,0,1-2.047-.712,1.282,1.282,0,0,1-.552-.5,1.256,1.256,0,0,1-.107-.5v-.908c0-.374.142-.552.409-.552a1.008,1.008,0,0,1,.32.053c.107.036.267.107.445.178a9.681,9.681,0,0,0,1.958.623,10.688,10.688,0,0,0,2.118.214,4.8,4.8,0,0,0,2.6-.587,1.917,1.917,0,0,0,.925-1.691,1.733,1.733,0,0,0-.481-1.246,4.466,4.466,0,0,0-1.8-.925l-2.581-.8a5.428,5.428,0,0,1-2.848-1.815,4.24,4.24,0,0,1-.89-2.581,3.961,3.961,0,0,1,.481-1.976A4.576,4.576,0,0,1,53.4,2.328,5.649,5.649,0,0,1,55.248,1.4a7.757,7.757,0,0,1,2.242-.3,8.934,8.934,0,0,1,1.192.071c.409.053.783.125,1.157.2.356.089.694.178,1.014.285a3.884,3.884,0,0,1,.748.32,1.539,1.539,0,0,1,.534.445A.959.959,0,0,1,62.3,3v.836c0,.374-.142.57-.409.57A1.851,1.851,0,0,1,61.21,4.2,8.142,8.142,0,0,0,57.793,3.5a4.594,4.594,0,0,0-2.367.5,1.719,1.719,0,0,0-.836,1.584,1.681,1.681,0,0,0,.534,1.264,5.316,5.316,0,0,0,1.958.979l2.527.8a5.413,5.413,0,0,1,2.759,1.709,4.027,4.027,0,0,1,.819,2.492,4.575,4.575,0,0,1-.463,2.065,4.787,4.787,0,0,1-1.3,1.566,5.737,5.737,0,0,1-1.976,1,8.463,8.463,0,0,1-2.545.374Z" transform="translate(-10.219)" fill="#fff"/>
    <g id="Group_210" data-name="Group 210" transform="translate(1.668 21.05)">
      <path id="Path_830" data-name="Path 830" d="M50.047,123.514c-5.855,4.325-14.363,6.621-21.677,6.621A39.217,39.217,0,0,1,1.905,120.043c-.552-.5-.053-1.175.605-.783a52.562,52.562,0,0,0,46.683,2.9C50.172,121.716,51.009,122.8,50.047,123.514Z" transform="translate(-1.668 -118.084)" fill="#fff" fill-rule="evenodd"/>
      <path id="Path_831" data-name="Path 831" d="M253.322,115.845c-.747-.961-4.948-.463-6.852-.231-.57.071-.659-.427-.142-.8,3.346-2.349,8.845-1.673,9.486-.89.641.8-.178,6.3-3.31,8.934-.481.409-.943.2-.73-.338C252.485,120.758,254.069,116.789,253.322,115.845Z" transform="translate(-202.504 -113.192)" fill="#fff" fill-rule="evenodd"/>
    </g>
  </g>
</svg>
