<svg xmlns="http://www.w3.org/2000/svg" width="229.808" height="32" viewBox="0 0 229.808 32">
  <g id="microsoft-azure-2" transform="translate(-0.5 -0.497)">
    <path id="Path_832" data-name="Path 832" d="M.5,4.9,13.623,3.1V15.759H.5ZM13.623,17.38V29.9L.5,28.1V17.38H13.623ZM15.074,2.9,32.535.5V15.759H15.074ZM32.535,17.38V32.5L15.074,30.1V17.38H32.535Z" fill="#fff"/>
    <g id="Group_212" data-name="Group 212" transform="translate(42.386 6.505)">
      <path id="Path_833" data-name="Path 833" d="M158.967,39.839h-3.033V28.11q0-1.442.18-3.527h-.051a12.313,12.313,0,0,1-.5,1.707l-5.5,13.549h-2.108l-5.514-13.447a12.471,12.471,0,0,1-.488-1.807H141.9q.1,1.087.1,3.551v11.7h-2.828V21.715h4.306l4.846,12.07a17.6,17.6,0,0,1,.719,2.073h.064q.476-1.429.771-2.124l4.936-12.019h4.152V39.839Zm5.694-15.66a1.806,1.806,0,0,1-1.253-.467,1.527,1.527,0,0,1-.521-1.188,1.567,1.567,0,0,1,.521-1.2,1.786,1.786,0,0,1,1.253-.48,1.843,1.843,0,0,1,1.286.48,1.559,1.559,0,0,1,.527,1.2,1.538,1.538,0,0,1-.527,1.169A1.826,1.826,0,0,1,164.662,24.179Zm1.477,15.66h-2.981V26.9h2.981V39.839Zm13.329-.594a7.454,7.454,0,0,1-3.741.9,6.4,6.4,0,0,1-4.73-1.8,6.322,6.322,0,0,1-1.8-4.67,6.665,6.665,0,0,1,7.108-7.078,7.649,7.649,0,0,1,3.174.62v2.73a4.865,4.865,0,0,0-2.93-1.011,4.108,4.108,0,0,0-3.1,1.258,4.554,4.554,0,0,0-1.209,3.292,4.34,4.34,0,0,0,1.137,3.172,4.075,4.075,0,0,0,3.053,1.163,4.818,4.818,0,0,0,3.033-1.124Zm10.6-9.555a2.5,2.5,0,0,0-1.556-.417,2.673,2.673,0,0,0-2.211,1.175,5.189,5.189,0,0,0-.887,3.2v6.193h-2.982V26.9h2.982v2.667h.051a4.5,4.5,0,0,1,1.343-2.129,3.064,3.064,0,0,1,2.024-.765,2.564,2.564,0,0,1,1.235.24V29.69Zm7.969,10.452a6.588,6.588,0,0,1-4.865-1.813,6.49,6.49,0,0,1-1.819-4.809,6.751,6.751,0,0,1,1.9-5.094,7.04,7.04,0,0,1,5.109-1.833,6.371,6.371,0,0,1,4.807,1.783,6.812,6.812,0,0,1,1.722,4.941,6.407,6.407,0,0,1-6.85,6.825Zm.141-11.21a3.429,3.429,0,0,0-2.763,1.2,4.968,4.968,0,0,0-1.015,3.311,4.682,4.682,0,0,0,1.028,3.2,3.482,3.482,0,0,0,2.751,1.169,3.3,3.3,0,0,0,2.706-1.15,5.04,5.04,0,0,0,.945-3.274,5.1,5.1,0,0,0-.945-3.3,3.291,3.291,0,0,0-2.707-1.161Zm8.934,10.5V36.718a6.014,6.014,0,0,0,3.688,1.251q2.7,0,2.7-1.567a1.222,1.222,0,0,0-.231-.752,2.164,2.164,0,0,0-.624-.549,5.082,5.082,0,0,0-.925-.43q-.535-.191-1.189-.43a12.634,12.634,0,0,1-1.459-.67,4.4,4.4,0,0,1-1.08-.8,3,3,0,0,1-.649-1.018,3.676,3.676,0,0,1-.218-1.327,3.027,3.027,0,0,1,.45-1.649,3.869,3.869,0,0,1,1.208-1.2,5.838,5.838,0,0,1,1.723-.733A8.006,8.006,0,0,1,212.5,26.6a9.2,9.2,0,0,1,3.264.543V29.7a5.568,5.568,0,0,0-3.187-.936,4.306,4.306,0,0,0-1.022.113,2.667,2.667,0,0,0-.778.316,1.568,1.568,0,0,0-.5.486,1.146,1.146,0,0,0-.18.625,1.322,1.322,0,0,0,.18.708,1.624,1.624,0,0,0,.534.512,4.57,4.57,0,0,0,.848.4c.33.122.709.256,1.138.4a16.7,16.7,0,0,1,1.523.7,5.145,5.145,0,0,1,1.151.8,3.129,3.129,0,0,1,.732,1.037,3.468,3.468,0,0,1,.257,1.4A3.146,3.146,0,0,1,216,37.981a3.821,3.821,0,0,1-1.233,1.213,5.809,5.809,0,0,1-1.78.713,9.357,9.357,0,0,1-2.127.234,9.066,9.066,0,0,1-3.741-.706Zm18.02.707a6.587,6.587,0,0,1-4.866-1.813,6.489,6.489,0,0,1-1.818-4.809,6.751,6.751,0,0,1,1.9-5.094,7.037,7.037,0,0,1,5.108-1.833,6.372,6.372,0,0,1,4.807,1.783,6.814,6.814,0,0,1,1.723,4.941,6.407,6.407,0,0,1-6.85,6.825Zm.141-11.21a3.433,3.433,0,0,0-2.764,1.2,4.968,4.968,0,0,0-1.015,3.311,4.684,4.684,0,0,0,1.028,3.2,3.482,3.482,0,0,0,2.751,1.169,3.3,3.3,0,0,0,2.705-1.15,5.031,5.031,0,0,0,.945-3.274,5.1,5.1,0,0,0-.945-3.3,3.29,3.29,0,0,0-2.705-1.161Zm17.2-5.864a2.748,2.748,0,0,0-1.375-.341q-2.173,0-2.172,2.414V26.9h3.059v2.3h-3.046V39.839h-2.982V29.2h-2.249V26.9h2.249V24.8a4.052,4.052,0,0,1,1.363-3.229,5.011,5.011,0,0,1,3.406-1.182,5.122,5.122,0,0,1,1.747.24Zm8.6,16.633a5.243,5.243,0,0,1-2.3.43q-3.829,0-3.829-3.614V29.2h-2.2V26.9h2.2v-3l2.982-.834V26.9h3.149v2.3h-3.149v6.47a2.515,2.515,0,0,0,.424,1.643,1.778,1.778,0,0,0,1.414.493,2.065,2.065,0,0,0,1.31-.43Zm25.295.139h-3.354l-1.658-4.614h-7.249l-1.594,4.614h-3.342l6.9-18.124h3.444l6.85,18.124Zm-5.822-7.065-2.557-7.229a8.34,8.34,0,0,1-.244-1.137h-.051a7.252,7.252,0,0,1-.257,1.137L264.9,32.774h5.641Zm17.749-4.651-7.107,9.428h7.081v2.288H277.008v-1.1l7.262-9.555H277.7V26.9h10.591v1.227Zm14,11.716h-2.981V37.791h-.051a4.3,4.3,0,0,1-4.035,2.351q-4.666,0-4.666-5.511V26.9h2.982v7.432q0,3.489,2.738,3.488a2.787,2.787,0,0,0,2.178-.96,3.64,3.64,0,0,0,.855-2.515V26.9h2.982ZM313.818,29.69a2.5,2.5,0,0,0-1.556-.417,2.674,2.674,0,0,0-2.211,1.175,5.191,5.191,0,0,0-.887,3.2v6.193h-2.981V26.9h2.981v2.667h.051a4.5,4.5,0,0,1,1.343-2.129,3.065,3.065,0,0,1,2.024-.765,2.556,2.556,0,0,1,1.233.24l0,2.781ZM327.1,34.164h-8.972a3.7,3.7,0,0,0,1.125,2.768,4.23,4.23,0,0,0,2.95.973,6.58,6.58,0,0,0,3.868-1.238v2.363a8.954,8.954,0,0,1-4.756,1.113,5.939,5.939,0,0,1-4.556-1.763,6.975,6.975,0,0,1-1.651-4.96,6.825,6.825,0,0,1,1.82-4.923,6,6,0,0,1,4.518-1.9,5.229,5.229,0,0,1,4.176,1.706,7,7,0,0,1,1.479,4.74v1.125Zm-2.879-2.073a3.756,3.756,0,0,0-.758-2.458,2.555,2.555,0,0,0-2.057-.878,2.918,2.918,0,0,0-2.178.923,4.185,4.185,0,0,0-1.1,2.414h6.092Z" transform="translate(-139.175 -20.388)" fill="#fff"/>
    </g>
  </g>
</svg>
