<svg xmlns="http://www.w3.org/2000/svg" width="61.63" height="32" viewBox="0 0 61.63 32">
  <g id="MYSql" transform="translate(-1601.504 -131.082)">
    <path id="Path_822" data-name="Path 822" d="M8.5,74.234h2.034V66.177L13.714,73.2a1.733,1.733,0,0,0,1.878,1.158A1.725,1.725,0,0,0,17.454,73.2l3.161-7.025v8.057h2.05V66.177a1.232,1.232,0,0,0-.97-1.362c-1.549-.469-2.582-.062-3.051.986L15.53,72.748l-3-6.947c-.454-1.048-1.5-1.455-3.067-.986A1.234,1.234,0,0,0,8.5,66.177v8.057h0Zm15.85-6.555H26.4v4.428c-.015.25.078.814,1.189.829.579.016,4.412,0,4.443,0V67.647h2.05v7.244c0,1.784-2.206,2.175-3.239,2.19H24.4V75.721h6.462c1.314-.141,1.158-.8,1.158-1.017v-.532H27.686c-2.018-.016-3.317-.908-3.332-1.924,0-.094.047-4.537,0-4.568Zm43.965-5.132a7.241,7.241,0,0,0-3.035.438c-.234.094-.61.094-.641.391.125.124.14.328.25.5a3.661,3.661,0,0,0,.814.954c.329.251.658.5,1,.72.61.375,1.3.594,1.893.97.344.219.688.5,1.033.736.172.125.282.329.5.407v-.047c-.109-.14-.141-.344-.25-.5-.157-.156-.313-.3-.47-.453a7.4,7.4,0,0,0-1.627-1.58c-.5-.344-1.6-.814-1.8-1.393l-.031-.032a6.387,6.387,0,0,0,1.079-.251c.532-.14,1.017-.109,1.564-.25.251-.063.5-.141.751-.219V62.8c-.282-.282-.485-.657-.782-.923a20.858,20.858,0,0,0-2.582-1.924c-.485-.313-1.111-.517-1.627-.782-.188-.094-.5-.141-.61-.3a6.273,6.273,0,0,1-.642-1.2c-.453-.861-.892-1.815-1.283-2.722a16.789,16.789,0,0,0-.8-1.784,15.77,15.77,0,0,0-6.055-5.852,7.5,7.5,0,0,0-2-.641c-.391-.016-.782-.047-1.173-.063a6.175,6.175,0,0,1-.72-.548c-.892-.563-3.192-1.784-3.849-.172-.423,1.017.626,2.018.986,2.535a7.388,7.388,0,0,1,.8,1.173c.109.266.14.548.25.829a18.727,18.727,0,0,0,.814,2.1,7.521,7.521,0,0,0,.579.97c.125.172.344.25.391.532a4.472,4.472,0,0,0-.359,1.174,6.891,6.891,0,0,0,.453,5.257c.251.391.845,1.252,1.643.923.7-.282.547-1.173.751-1.956.047-.188.016-.313.109-.438v.031c.219.438.438.861.642,1.3a8.931,8.931,0,0,0,2.034,2.1c.375.282.673.767,1.142.939V63.3h-.031a1.752,1.752,0,0,0-.36-.313,7.62,7.62,0,0,1-.814-.939A20.166,20.166,0,0,1,54.5,59.2c-.251-.485-.47-1.017-.673-1.5-.095-.188-.095-.47-.251-.563a5.92,5.92,0,0,0-.751,1.064,8.806,8.806,0,0,0-.438,2.362c-.063.016-.032,0-.063.031-.5-.125-.673-.641-.86-1.079a6.77,6.77,0,0,1-.141-4.178c.109-.329.579-1.361.392-1.674-.095-.3-.407-.469-.579-.7a6.321,6.321,0,0,1-.563-1c-.375-.876-.563-1.846-.97-2.723a8.356,8.356,0,0,0-.783-1.2,7.767,7.767,0,0,1-.86-1.22c-.078-.172-.188-.454-.062-.641a.249.249,0,0,1,.218-.2c.2-.172.783.047.986.141a8,8,0,0,1,1.549.782c.219.156.454.454.736.532h.329c.5.109,1.064.031,1.533.172a10.017,10.017,0,0,1,2.253,1.08,13.879,13.879,0,0,1,4.881,5.351c.188.36.266.688.438,1.064.329.767.736,1.549,1.064,2.3A10.312,10.312,0,0,0,63,59.481c.235.329,1.173.5,1.6.673a11.182,11.182,0,0,1,1.08.438c.532.329,1.064.7,1.564,1.064.25.187,1.033.578,1.079.891Z" transform="translate(1593 86)" fill="#fff" fill-rule="evenodd"/>
    <path id="Path_823" data-name="Path 823" d="M132.379,56.114a2.471,2.471,0,0,0-.641.078v.031h.031a5.022,5.022,0,0,0,.5.641c.125.25.235.5.36.751l.031-.031a.883.883,0,0,0,.329-.782,3.485,3.485,0,0,1-.188-.329c-.094-.156-.3-.235-.423-.36Z" transform="translate(1512.981 78.837)" fill="#fff" fill-rule="evenodd"/>
    <path id="Path_824" data-name="Path 824" d="M85.916,110.775H91.8a4.464,4.464,0,0,0,1.878-.391c.892-.407,1.314-.954,1.314-1.674v-1.5c0-.579-.485-1.127-1.455-1.5a5.122,5.122,0,0,0-1.737-.3H89.327c-.829,0-1.22-.251-1.33-.8a.771.771,0,0,1-.015-.188V103.5a.707.707,0,0,1,.015-.172c.109-.423.329-.532,1.049-.61h6.024v-1.362H89.342a5.291,5.291,0,0,0-1.658.173c-1.2.375-1.737.97-1.737,2.018v1.19c0,.923,1.033,1.705,2.785,1.893.188.016.391.016.594.016h2.112a.949.949,0,0,1,.218.016c.642.062.923.172,1.111.406a.476.476,0,0,1,.157.376v1.189a.7.7,0,0,1-.282.485,1.462,1.462,0,0,1-.877.282c-.078,0-.124.016-.2.016H85.916Zm21.81-2.362c0,1.393,1.049,2.175,3.145,2.331.2.016.391.031.594.031h5.32v-1.361h-5.366c-1.19,0-1.643-.3-1.643-1.017v-7.041h-2.05v7.057Zm-11.437.062v-4.85c0-1.236.876-1.988,2.582-2.222.188-.016.375-.032.547-.032h3.88c.2,0,.376.016.579.032,1.705.234,2.566.986,2.566,2.222v4.85a1.785,1.785,0,0,1-1.2,1.894l2,1.814h-2.362l-1.627-1.47-1.643.094h-2.19a4.79,4.79,0,0,1-1.189-.156c-1.3-.36-1.94-1.049-1.94-2.176Zm2.206-.109a1.245,1.245,0,0,0,.047.2c.109.563.641.876,1.455.876h1.847l-1.69-1.533h2.362L104,109.258a.978.978,0,0,0,.517-.658.882.882,0,0,0,.016-.2V103.75a.757.757,0,0,0-.016-.188c-.109-.532-.641-.829-1.439-.829H100c-.908,0-1.5.391-1.5,1.016v4.616Zm19.23,2.425h.3v-1.142h.391v-.235h-1.1v.235h.407Zm2.268,0h.282v-1.377h-.422l-.344.939-.375-.939h-.407v1.377h.266v-1.048h.016l.391,1.048h.2l.391-1.048v1.048Z" transform="translate(1542.734 49.46)" fill="#fff" fill-rule="evenodd"/>
  </g>
</svg>
