<svg xmlns="http://www.w3.org/2000/svg" xmlns:xlink="http://www.w3.org/1999/xlink" width="88.086" height="32" viewBox="0 0 88.086 32">
  <defs>
    <linearGradient id="linear-gradient" x1="-4.183" y1="0.143" x2="-3.174" y2="0.794" gradientUnits="objectBoundingBox">
      <stop offset="0" stop-color="#fff"/>
      <stop offset="1" stop-color="#ededee"/>
    </linearGradient>
  </defs>
  <g id="sql_server" data-name="sql server" transform="translate(-1377.244 -331.261)">
    <g id="Group_211" data-name="Group 211" transform="translate(1377.244 331.261)">
      <path id="Path_825" data-name="Path 825" d="M350.809,463.277l-6.352,2.074-5.526,2.439-1.546.408c-.394.375-.807.754-1.253,1.138-.49.423-.946.807-1.3,1.085a9.673,9.673,0,0,0-1.258,1.248,5.661,5.661,0,0,0-.931,1.575,2.644,2.644,0,0,0,.375,2.377,8.42,8.42,0,0,0,3.471,2.607,22.061,22.061,0,0,0,3.054,1.023,40.436,40.436,0,0,0,6.51.927,7.49,7.49,0,0,0,.84,0,11.443,11.443,0,0,0,.62-1.176,29.75,29.75,0,0,0,2.252-5.958,28.234,28.234,0,0,0,.576-4.129c.034-.466.048-2.026.019-2.554a17.945,17.945,0,0,0-.24-2.252.523.523,0,0,1-.014-.2,8.337,8.337,0,0,1,.859-.259l-.158-.374h0Zm-1.45.85a15.562,15.562,0,0,1,.25,2.405,1.287,1.287,0,0,1,0,.326c-.038,0-.811-.456-1.363-.8-.48-.3-1.392-.907-1.536-1.023-.048-.034-.043-.038.35-.173C347.722,464.636,349.306,464.127,349.359,464.127Zm-3.236,1.066a1.592,1.592,0,0,1,.418.226,29.77,29.77,0,0,0,2.91,1.618c.178.077.2.048-.211.326a20.921,20.921,0,0,1-3.3,1.772c-.235.106-.432.187-.437.187a1.24,1.24,0,0,1,.057-.264,14.159,14.159,0,0,0,.514-3.375c0-.48,0-.48.048-.494C346.113,465.193,346.118,465.193,346.123,465.193Zm-.667.254a10.354,10.354,0,0,1-.029,1.4,12.228,12.228,0,0,1-.442,2.089,3.2,3.2,0,0,1-.11.336,8.454,8.454,0,0,1-.893-.869,6.5,6.5,0,0,1-.883-1.287,4.048,4.048,0,0,1-.269-.653C342.906,466.407,345.436,465.428,345.456,465.447Zm-3.14,1.234a.018.018,0,0,1,.014,0,.9.9,0,0,1,.072.173,6.488,6.488,0,0,0,.8,1.426,8.122,8.122,0,0,0,1.109,1.2c.115.1.221.187.235.2s.038.024-.744.322c-.907.346-1.9.691-3.03,1.056l-.811.264c-.043.014-.029-.01.1-.206a27.008,27.008,0,0,0,1.9-3.822c.082-.211.163-.422.178-.47a.173.173,0,0,1,.106-.125A.463.463,0,0,1,342.316,466.681Zm-.96.4a10.713,10.713,0,0,1-.47.994c-.466.907-.975,1.8-1.656,2.885-.115.187-.226.36-.24.379s-.034.024-.11-.125a4.4,4.4,0,0,1-.37-1.114,4.485,4.485,0,0,1,.024-1.431c.062-.3.058-.293.2-.365C339.348,467.992,341.336,467.06,341.355,467.08Zm8.282.336v.2a26.132,26.132,0,0,1-.283,3.611c-.029.187-.053.341-.058.346s-.139-.038-.3-.086a12.394,12.394,0,0,1-2.209-.946,9.778,9.778,0,0,1-1.123-.691s.206-.11.442-.235a28.3,28.3,0,0,0,2.626-1.541c.293-.2.734-.514.831-.6Zm-11.907,1.421c.019,0,.014.038-.014.211-.019.125-.043.355-.053.514a3.553,3.553,0,0,0,.422,1.93,3.947,3.947,0,0,1,.168.365c-.034.029-3.212.96-4.211,1.234l-.576.158c-.033.01-.038,0-.024-.077a5.045,5.045,0,0,1,1.4-2.405,6.212,6.212,0,0,1,1.58-1.21c.49-.278,1.244-.7,1.3-.715C337.721,468.837,337.726,468.837,337.73,468.837Zm7.49,1.34a1.955,1.955,0,0,1,.259.139,14.465,14.465,0,0,0,3.678,1.431l.11.024-.154.086c-.638.355-2.737,1.229-4.883,2.031-.312.115-.619.231-.677.254a.345.345,0,0,1-.11.034s.086-.173.2-.379a23.7,23.7,0,0,0,1.513-3.443C345.192,470.263,345.216,470.181,345.22,470.176Zm-.763.25a1.386,1.386,0,0,1-.082.221A30.385,30.385,0,0,1,342.709,474c-.177.317-.326.571-.331.571s-.149-.086-.322-.192a9.875,9.875,0,0,1-2.511-2.137l-.086-.106.437-.12a31.353,31.353,0,0,0,4.215-1.455C344.3,470.488,344.452,470.426,344.457,470.426Zm4.744,1.656h0c0,.11-.24,1.1-.442,1.815-.168.6-.312,1.071-.576,1.9-.115.365-.216.667-.221.667a.314.314,0,0,1-.062-.014,20.067,20.067,0,0,1-3.9-1.1c-.336-.134-.816-.351-.845-.375a5.58,5.58,0,0,1,.643-.3c2.185-.955,4.451-2.041,5.229-2.506A.625.625,0,0,1,349.2,472.082Zm-10.952.375c.01.01-.6.888-1.455,2.084-.3.418-.643.907-.773,1.09s-.326.471-.437.643l-.2.312-.216-.182a8.007,8.007,0,0,1-.893-.912,3.941,3.941,0,0,1-.8-1.551c-.053-.231-.053-.346,0-.36.072-.019,1.354-.322,2.554-.6.667-.154,1.44-.336,1.719-.4S338.244,472.457,338.249,472.457Zm.615.235.154.173a9.019,9.019,0,0,0,2.252,1.844,1.256,1.256,0,0,1,.259.168c-.033.024-2.967,1.066-4.326,1.536-.763.269-1.392.485-1.4.485a.809.809,0,0,1-.1-.062l-.086-.062.139-.2c.451-.653,1.018-1.368,2.252-2.857Zm3.831,2.741s.216.072.475.168a15.375,15.375,0,0,0,1.781.552,19.721,19.721,0,0,0,2.694.466c.106.01.163.019.144.034s-.739.254-1.258.418c-.826.259-3.347,1-5.4,1.594-.379.11-.706.2-.725.206a.38.38,0,0,1-.206-.053,3.458,3.458,0,0,1,.255-.322,28.513,28.513,0,0,0,1.949-2.621C342.56,475.635,342.695,475.438,342.695,475.434Zm-.845.024s-.336.552-.931,1.493c-.255.4-.538.85-.639,1.008s-.24.394-.322.528l-.139.245-.072-.019c-.173-.048-1.388-.475-1.709-.6a11.893,11.893,0,0,1-1.119-.514,4.673,4.673,0,0,1-.826-.523c.009,0,.667-.182,1.459-.4,2.1-.571,3.27-.9,4.033-1.143A1.908,1.908,0,0,1,341.85,475.458Zm5.978,1.4h0c.019.048-.759,2.209-1.042,2.89-.062.154-.086.192-.12.187-.082,0-1.21-.163-1.9-.264-1.2-.182-3.2-.533-3.707-.648l-.115-.024.715-.163c1.536-.346,2.276-.533,3.025-.763a21.368,21.368,0,0,0,2.828-1.09A2.318,2.318,0,0,1,347.827,476.86Z" transform="translate(-332.512 -448.47)" opacity="0.51" fill="url(#linear-gradient)"/>
      <path id="Path_826" data-name="Path 826" d="M463.181,82.734a30.531,30.531,0,0,0-2.91,1.047,18.168,18.168,0,0,0-3.346,1.68,2.537,2.537,0,0,0-.648.648.448.448,0,0,0-.029.163l.643.61,1.531.49,3.644.653,4.167.715.043-.36c-.014,0-.024,0-.038,0l-.547-.086-.11-.2c-.567-1-1.191-2.237-1.556-3.073a15.876,15.876,0,0,1-.7-1.935c-.082-.326-.091-.346-.144-.35h0Zm-.077.245h0s.024.139.043.3a10.034,10.034,0,0,0,.466,2.021c.178.528.178.5-.029.437-.49-.134-2.684-.514-4.273-.735-.255-.034-.471-.067-.471-.072-.019-.019,1.147-.629,1.661-.869C461.164,83.757,462.969,83,463.1,82.979Zm-4.628,2.151.187.062a28.617,28.617,0,0,0,4.988.951l.3.029a2.214,2.214,0,0,1-.3.158c-.682.341-1.431.759-1.949,1.08a1.991,1.991,0,0,1-.312.173c-.019,0-.12-.019-.226-.034l-.192-.029-.48-.471c-.845-.821-1.508-1.455-1.762-1.695Zm-.192.149.677.845c.37.466.744.922.826,1.023a1.579,1.579,0,0,1,.144.187c-.019.014-.979-.173-1.488-.288s-.739-.178-1.061-.278l-.264-.086v-.067c0-.322.413-.8,1.1-1.291Zm5.752,1.152c.019,0,.043.043.1.173.163.36.672,1.33.8,1.517.039.062.106.067-.571-.043-1.628-.264-2.151-.35-2.151-.36a.5.5,0,0,1,.11-.072,9.372,9.372,0,0,0,1.464-1.013c.11-.091.211-.178.23-.192S464.03,86.427,464.035,86.431Z" transform="translate(-451.433 -82.734)" opacity="0.51" fill="url(#linear-gradient)"/>
      <path id="Path_827" data-name="Path 827" d="M395.355,167.757a.478.478,0,0,0,0,.418,1.9,1.9,0,0,0,.451.533s2.137,2.084,2.4,2.382a6.675,6.675,0,0,1,1.743,4.561,7.386,7.386,0,0,1-.759,3.452c-1,2.18-3.106,4.585-6.357,7.255l.475-.158a15.26,15.26,0,0,1,1.7-1.013,60.748,60.748,0,0,1,7.927-3.548,98.86,98.86,0,0,1,16.089-4.312l.437-.067-.067-.106a14.805,14.805,0,0,0-.965-1.359,11.538,11.538,0,0,0-3.409-2.838,25.28,25.28,0,0,0-7.4-2.482c-.581-.115-1.858-.336-2.9-.495-2.2-.341-3.62-.576-5.185-.845-.562-.1-1.4-.24-1.959-.36a12.433,12.433,0,0,1-1.272-.341C395.96,168.3,395.46,168.165,395.355,167.757Zm1.239,1.2a1.35,1.35,0,0,1,.182.058c.182.062.418.134.7.211q.316.087.634.168c.288.072.528.139.533.139.034.034.519,1.584.682,2.18.062.226.11.418.106.418a.974.974,0,0,1-.12-.187,9.993,9.993,0,0,0-2.477-2.8A2.044,2.044,0,0,1,396.594,168.957Zm2.362.653a1.886,1.886,0,0,1,.259.043c.816.182,2.281.461,3.217.619a1.18,1.18,0,0,1,.283.062.486.486,0,0,1-.13.082c-.158.082-.8.461-1.008.6a9.2,9.2,0,0,0-1.359,1.085c-.139.139-.259.255-.259.255s-.029-.082-.053-.183a15.553,15.553,0,0,0-.859-2.353,2.054,2.054,0,0,1-.1-.221C398.951,169.615,398.951,169.61,398.956,169.61Zm4.158.792a1.849,1.849,0,0,1,.173.533,7.86,7.86,0,0,1,.23,2.2c-.01.2-.019.389-.029.413l-.014.048-.25-.082c-.514-.163-1.349-.408-2.064-.61-.408-.11-.739-.211-.739-.221a11.35,11.35,0,0,1,.85-.85A22.282,22.282,0,0,1,403.114,170.4Zm.331.048c.014-.014,1.988.326,2.886.5.667.13,1.637.331,1.695.355.029.01-.072.067-.394.211a20.845,20.845,0,0,0-3.145,1.709c-.245.163-.451.3-.456.3a2.634,2.634,0,0,1-.01-.307,6.705,6.705,0,0,0-.519-2.612A.725.725,0,0,1,403.445,170.451Zm5.1,1.008a3.615,3.615,0,0,1-.106.634,12.035,12.035,0,0,1-1.21,2.775,3.153,3.153,0,0,1-.2.326,2.05,2.05,0,0,1-.288-.154,15.642,15.642,0,0,0-1.882-.922c-.192-.082-.36-.149-.365-.158-.034-.029,1.512-1.051,2.329-1.541C407.473,172.025,408.529,171.44,408.549,171.459Zm.365.058c.043,0,.917.24,1.373.375a28.332,28.332,0,0,1,3.27,1.2l.35.159-.245.058a35.79,35.79,0,0,0-5.536,1.714c-.139.058-.264.106-.274.106a1.248,1.248,0,0,1,.1-.245,9.723,9.723,0,0,0,.927-3.2C408.885,171.588,408.9,171.516,408.913,171.516Zm-8.7,2c.014-.014.682.144,1.042.245.547.154,1.709.543,1.709.571,0,0-.13.115-.283.25-.629.523-1.234,1.075-1.959,1.776-.216.207-.4.375-.408.375s-.014-.029-.01-.067a10.824,10.824,0,0,0-.067-2.9C400.223,173.634,400.209,173.519,400.214,173.514Zm14.024.014a9.2,9.2,0,0,1-.509.792c-.288.413-.711.96-1.666,2.161-.5.634-1.071,1.349-1.258,1.589s-.35.442-.355.442a1.656,1.656,0,0,1-.134-.192,9.922,9.922,0,0,0-1.945-2.146c-.144-.12-.3-.25-.355-.288a.536.536,0,0,1-.1-.082c0-.014.816-.365,1.436-.615,1.085-.442,2.564-.97,3.673-1.311C413.609,173.7,414.228,173.519,414.238,173.528Zm.37.1a1.107,1.107,0,0,1,.274.134,16.289,16.289,0,0,1,3.212,2.41c.254.25.883.9.874.908s-.221.019-.48.038a47.334,47.334,0,0,0-7.1,1.181c-.168.038-.317.072-.326.072s.178-.187.413-.413a12.285,12.285,0,0,0,2.914-3.879c.11-.235.206-.437.216-.451Zm-10.692,1.095c.067.014.691.307,1.162.543.432.216,1.08.562,1.114.591,0,0-.226.125-.509.264-.9.451-1.676.879-2.482,1.368-.23.139-.422.255-.427.255s-.014-.019.115-.255a10.026,10.026,0,0,0,.975-2.645C403.882,174.767,403.9,174.719,403.915,174.719Zm-.624.115a9.154,9.154,0,0,1-.25.927,11.823,11.823,0,0,1-.85,1.949c-.077.134-.192.331-.254.442l-.12.192-.269-.259a3.528,3.528,0,0,0-.893-.658,1.292,1.292,0,0,1-.23-.134c0-.038.821-.783,1.45-1.32C402.326,175.583,403.277,174.82,403.291,174.834Zm3.817,1.57.235.154A18.258,18.258,0,0,1,409,177.782c.274.226.8.7.907.816l.057.063-.389.11c-2.2.61-3.9,1.152-5.882,1.882-.221.082-.408.149-.423.149s-.053.024.442-.432a21.08,21.08,0,0,0,3.226-3.707Zm-1,.25c.01.01-.648.936-1.042,1.46-.471.624-1.306,1.671-1.882,2.353-.24.283-.446.519-.456.523s-.019-.067-.019-.178a4.025,4.025,0,0,0-.408-1.728c-.11-.221-.13-.274-.106-.3.091-.082,1.488-.879,2.372-1.354C405.159,177.115,406.09,176.644,406.1,176.654Zm-6.069,1.488a2.121,2.121,0,0,1,.25.125,5.274,5.274,0,0,1,.826.557,1.432,1.432,0,0,1-.278.23c-.456.327-1.147.85-1.551,1.172-.423.336-.437.346-.389.274a8.241,8.241,0,0,0,1.047-2.113A.813.813,0,0,1,400.036,178.142Zm1.618,1.267c.024,0,.053.038.182.231a3.464,3.464,0,0,1,.538,1.4l.01.1-.658.254c-1.176.456-2.261.907-3,1.243-.206.1-.567.269-.8.384s-.427.211-.427.206.149-.115.331-.25a19.356,19.356,0,0,0,3.611-3.327c.1-.12.192-.23.2-.235Zm-.744.183a10.159,10.159,0,0,1-.9,1.018,15.928,15.928,0,0,1-2.982,2.406l-.288.182c-.034.019.01-.029.509-.571.317-.341.557-.629.831-.984a1.622,1.622,0,0,1,.48-.456C399.263,180.677,400.891,179.573,400.91,179.592Z" transform="translate(-390.478 -164.449)" fill="url(#linear-gradient)"/>
    </g>
    <path id="Path_828" data-name="Path 828" d="M7.14,794.123c-.1,0-.2.009-.3.009a4.415,4.415,0,0,0-4.129,2.7,7.118,7.118,0,0,0,.008,5.139,4.458,4.458,0,0,0,3.751,2.634c.4.066.673.287,1.453,1.2l.96,1.125H10.63l-1.158-1.167a12.383,12.383,0,0,1-1.158-1.246c0-.049.245-.156.541-.247a3.98,3.98,0,0,0,2.356-2.208,4.636,4.636,0,0,0,.591-2.372c.172-3.44-1.642-5.591-4.662-5.567Zm1.527,9a4.1,4.1,0,0,1-2.88.2,3.715,3.715,0,0,1-2-2.143,6.086,6.086,0,0,1,.115-3.923A3.311,3.311,0,0,1,7.05,795.19c2.118,0,3.323,1.3,3.48,3.735.124,2.035-.557,3.562-1.862,4.194Zm30.082-6.058a1.865,1.865,0,0,0-1.666.878l-.3.461v-1.2H35.523v7.192h1.263v-2.3c0-2.1.026-2.348.32-2.923a1.577,1.577,0,0,1,1.774-.994l.452.132v-1.246h-.584ZM31.322,797a4.087,4.087,0,0,0-2.414,6.642,3.911,3.911,0,0,0,4.309.615c.287-.122.6-.264.6-.264v-1.131l-.6.311c-1.362.593-2.388.593-3.21-.106a3.239,3.239,0,0,1-.861-1.9h5.1v-.97c0-1.977-1.19-3.225-2.922-3.193h0Zm-2.061,3.153a2.947,2.947,0,0,1,.887-1.717,1.907,1.907,0,0,1,1.1-.352,1.759,1.759,0,0,1,1.067.361,2.8,2.8,0,0,1,.747,1.7h-3.8v.009Zm-30.477-1.3c-1.37-.83-1.979-1.429-1.9-2.135.213-1.953,2.626-1.683,3.963-.944l.01-1.314a5.157,5.157,0,0,0-1.8-.337c-1.625-.024-2.675.508-3.167,1.593-.723,1.6-.083,2.807,2.231,4.153,1.3.756,1.873,1.412,1.873,2.127,0,1.478-1.782,1.994-3.62,1.067-.378-.188-.7-.345-.715-.345a11.348,11.348,0,0,0-.032,1.421,7.856,7.856,0,0,0,1.412.4c2.1.419,4.013-.567,4.193-2.167.157-1.5-.386-2.29-2.445-3.521h0Zm51.153-1.873a3.831,3.831,0,0,0-.781.091,4.212,4.212,0,0,0-1.633,6.542,3.919,3.919,0,0,0,4.318.616c.286-.122.6-.261.6-.261v-1.133l-.6.312c-1.365.591-2.391.591-3.21-.107a3.2,3.2,0,0,1-.862-1.9h5.089v-.97c0-1.967-1.19-3.216-2.922-3.183l0,0Zm-2.061,3.153a2.994,2.994,0,0,1,.888-1.725,1.9,1.9,0,0,1,1.1-.353,1.759,1.759,0,0,1,1.068.361,2.822,2.822,0,0,1,.747,1.708h-3.8v.009ZM24.7,798.868c-1.37-.828-1.977-1.429-1.9-2.135.213-1.954,2.626-1.683,3.963-.944l.009-1.314a5.13,5.13,0,0,0-1.8-.335c-1.625-.024-2.675.508-3.168,1.593-.722,1.6-.073,2.807,2.233,4.153,1.3.755,1.871,1.4,1.871,2.118,0,1.478-1.781,2-3.619,1.067-.377-.188-.7-.344-.715-.344a11.35,11.35,0,0,0-.032,1.421,8.6,8.6,0,0,0,1.4.4c2.1.42,4.016-.565,4.2-2.165.156-1.495-.386-2.283-2.438-3.514v0Zm32.66-1.823a1.858,1.858,0,0,0-1.666.879l-.3.459v-1.2H54.139v7.19H55.4v-2.3c0-2.1.025-2.348.32-2.922a1.577,1.577,0,0,1,1.774-.993l.452.132v-1.249h-.584Zm-42.713,1.782v-4.58H13.377v10.146h5.36v-1.2H14.652v-4.367Zm29.474,1.428-1.05,2.734-1.01-2.749-1.026-3.046h-1.3c.845,2.4,1.765,4.834,2.692,7.2.4.009.8,0,1.207,0l1.419-3.562,1.445-3.635H45.25s-.551,1.444-1.125,3.061h0Zm-26.537-8.773a.7.7,0,0,0,.518-.207.687.687,0,0,0,.213-.508.675.675,0,0,0-.213-.508.708.708,0,0,0-.508-.2.7.7,0,0,0-.518.205.685.685,0,0,0-.205.508.663.663,0,0,0,.205.508.691.691,0,0,0,.508.2v0Zm-.452-1.167a.645.645,0,0,1,1.1.452.632.632,0,0,1-.188.459.615.615,0,0,1-.452.181.6.6,0,0,1-.452-.181.632.632,0,0,1-.188-.459A.608.608,0,0,1,17.137,790.315Zm.3.518h.083c.058,0,.116.056.165.164l.1.222h.155l-.122-.247c-.05-.1-.1-.156-.156-.172a.3.3,0,0,0,.171-.09.226.226,0,0,0,.056-.165.211.211,0,0,0-.073-.173.412.412,0,0,0-.264-.072h-.262v.92h.132v-.386Zm0-.427h.115a.294.294,0,0,1,.173.041c.031.024.04.057.04.115,0,.106-.066.156-.188.156h-.141v-.312h0Zm-21.053.345c0-.32-.009-.558-.017-.7h.008a2.1,2.1,0,0,0,.106.371l1.224,2.734h.205L-.863,790.4a2.491,2.491,0,0,0,.106-.345h.009c-.024.273-.033.51-.033.7v2.413h.419v-3.586H-.886l-1.125,2.495c-.041.1-.1.247-.172.442H-2.2a2.878,2.878,0,0,0-.164-.426l-1.1-2.52h-.558v3.586h.4v-2.4l.007,0Zm4.169.007H.918v2.234H.557Zm.181-.819a.254.254,0,0,0,.188-.075.261.261,0,0,0,.083-.188.237.237,0,0,0-.082-.188.264.264,0,0,0-.19-.075.258.258,0,0,0-.188.075.265.265,0,0,0-.083.188.227.227,0,0,0,.083.188.271.271,0,0,0,.188.075h0Zm2.758,3.1v-.394a1.04,1.04,0,0,1-.631.221.817.817,0,0,1-.634-.263,1.019,1.019,0,0,1-.238-.706,1.061,1.061,0,0,1,.254-.746.827.827,0,0,1,.64-.271,1.05,1.05,0,0,1,.608.2v-.419a1.252,1.252,0,0,0-.591-.132,1.265,1.265,0,0,0-.969.386,1.442,1.442,0,0,0-.36,1.016,1.3,1.3,0,0,0,.328.921,1.165,1.165,0,0,0,.887.369,1.447,1.447,0,0,0,.706-.181Zm1.034-1.191a1.158,1.158,0,0,1,.188-.7.515.515,0,0,1,.419-.222.481.481,0,0,1,.311.083v-.427a.652.652,0,0,0-.245-.033.624.624,0,0,0-.4.141.863.863,0,0,0-.278.433H4.521V790.6H4.111v2.56h.41v-1.314Zm2.356,1.365a1.212,1.212,0,0,0,.927-.371,1.615,1.615,0,0,0,.024-1.962,1.132,1.132,0,0,0-.894-.353,1.285,1.285,0,0,0-.927.337A1.4,1.4,0,0,0,5.64,791.9a1.334,1.334,0,0,0,.328.944,1.192,1.192,0,0,0,.919.37h0ZM6.3,791.128a.809.809,0,0,1,.616-.247.765.765,0,0,1,.608.247,1.373,1.373,0,0,1,.016,1.469.748.748,0,0,1-.616.263A.8.8,0,0,1,6.3,792.6a1.037,1.037,0,0,1-.23-.723,1,1,0,0,1,.23-.746Zm3.652,1.863a.673.673,0,0,0,.239-.525.641.641,0,0,0-.188-.468,1.451,1.451,0,0,0-.477-.279,1.486,1.486,0,0,1-.386-.214.351.351,0,0,1-.106-.263.31.31,0,0,1,.122-.254.506.506,0,0,1,.329-.1.967.967,0,0,1,.584.182v-.41a1.2,1.2,0,0,0-.551-.122.976.976,0,0,0-.65.213.7.7,0,0,0-.09.992,1.326,1.326,0,0,0,.459.287,1.724,1.724,0,0,1,.419.238.313.313,0,0,1,.106.245c0,.239-.164.362-.484.362a1.016,1.016,0,0,1-.666-.245v.442a1.211,1.211,0,0,0,.631.156,1.113,1.113,0,0,0,.706-.238Zm1.954-2.462a1.285,1.285,0,0,0-.927.337,1.4,1.4,0,0,0-.377,1.034,1.338,1.338,0,0,0,.328.944,1.336,1.336,0,0,0,1.847,0,1.379,1.379,0,0,0,.345-.985,1.4,1.4,0,0,0-.32-.977,1.157,1.157,0,0,0-.894-.353h0Zm.8,1.346a1.1,1.1,0,0,1-.205.723.748.748,0,0,1-.616.264.8.8,0,0,1-.624-.264,1.037,1.037,0,0,1-.23-.723,1.053,1.053,0,0,1,.247-.755.81.81,0,0,1,.616-.247.779.779,0,0,1,.606.247,1.248,1.248,0,0,1,.205.755h0Zm1.109,1.281h.409v-2.217h.6v-.344h-.6v-.4c0-.359.139-.54.427-.54a.566.566,0,0,1,.269.066v-.37a.751.751,0,0,0-.3-.041.764.764,0,0,0-.55.205.863.863,0,0,0-.264.665v.42h-.433v.344h.433v2.208Zm1.682-.7c0,.5.221.756.673.756a.739.739,0,0,0,.386-.085v-.352a.428.428,0,0,1-.264.083.349.349,0,0,1-.295-.108.6.6,0,0,1-.091-.369v-1.445h.649v-.345h-.649v-.755c-.141.049-.28.09-.41.132v.623h-.442v.344H15.5v1.518Zm44.053,4.72a.705.705,0,0,0-.508-.2.7.7,0,0,0-.723.715.671.671,0,0,0,.2.508.722.722,0,0,0,.518.2.705.705,0,0,0,.518-.205.693.693,0,0,0,.212-.508.711.711,0,0,0-.221-.51Zm-.066.97a.66.66,0,0,1-.9,0,.638.638,0,0,1-.188-.461.615.615,0,0,1,.64-.63.614.614,0,0,1,.452.179.622.622,0,0,1,.188.452A.591.591,0,0,1,59.483,798.146Zm-.369-.419a.355.355,0,0,0,.172-.09.227.227,0,0,0,.057-.166.21.21,0,0,0-.073-.172.413.413,0,0,0-.263-.073h-.262v.919h.132v-.386h.082c.057,0,.113.056.164.164l.1.221h.156l-.122-.247c-.042-.107-.091-.156-.141-.172Zm-.09-.083h-.141v-.311H59a.288.288,0,0,1,.172.041c.033.024.04.057.04.115,0,.106-.066.155-.188.155ZM-10.89,806.7h.115v-.92h.3v-.115h-.723v.115h.3v.92Zm.7-.691a1.658,1.658,0,0,0-.007-.2.568.568,0,0,0,.032.106l.353.789h.056l.354-.8c.01-.024.017-.057.033-.1-.008.082-.008.148-.008.2v.7h.122v-1.034H-9.4l-.32.714c-.008.026-.033.075-.049.132h-.009a.753.753,0,0,0-.047-.122l-.32-.723h-.166V806.7h.116v-.691h.007Z" transform="translate(1405.561 -443.668)" fill="url(#linear-gradient)"/>
  </g>
</svg>
