<svg xmlns="http://www.w3.org/2000/svg" width="62" height="62" viewBox="0 0 62 62">
  <g id="iot" transform="translate(-631 -526)">
    <g id="iot-2" data-name="iot" transform="translate(631 525.995)">
      <path id="Path_916" fill="#FB5607" data-name="Path 916" d="M48.321,13.715a19.354,19.354,0,0,0-36.454,5.759h-.242a11.625,11.625,0,0,0,0,23.25h4.851v8.709a2.91,2.91,0,0,0,2.906,2.906h6.561l-.581,2.906H24.219a.969.969,0,1,0,0,1.938H37.781a.969.969,0,0,0,0-1.937H36.636l-.581-2.906h6.561a2.91,2.91,0,0,0,2.906-2.906V42.724h1.946a14.517,14.517,0,0,0,.853-29.009ZM43.586,48.527H18.414V34.007a.969.969,0,0,1,.969-.969H42.617a.969.969,0,0,1,.969.969Zm-8.925,8.719H27.338l.581-2.906h6.16ZM42.617,52.4H19.383a.969.969,0,0,1-.969-.969v-.969H31.019a.974.974,0,1,0,.011,0H43.587v.969a.971.971,0,0,1-.97.969Zm4.851-11.615H45.524V34.007A2.91,2.91,0,0,0,42.617,31.1H19.383a2.91,2.91,0,0,0-2.906,2.906v6.779H11.625a9.688,9.688,0,0,1,0-19.375h.049c-.016.323-.049.641-.049.969a.969.969,0,0,0,1.938,0,17.438,17.438,0,1,1,34.875,0,.969.969,0,0,0,1.938,0,19.415,19.415,0,0,0-.434-4.1,19.177,19.177,0,0,0-.756-2.549,12.584,12.584,0,0,1-1.717,25.051Z"/>
      <path id="Path_917" fill="#FB5607" data-name="Path 917" d="M36.593,17.285a.972.972,0,0,0-1.372,0l-1.937,1.937a.969.969,0,1,0,1.37,1.37l.284-.284v7.351a.969.969,0,0,0,1.938,0V20.307l.284.284a.969.969,0,0,0,1.37-1.37Z" transform="translate(-1.031 -0.437)"/>
      <path id="Path_918" fill="#FB5607" data-name="Path 918" d="M29.157,25.036l-.284.284V17.969a.969.969,0,0,0-1.937,0V25.32l-.284-.284a.969.969,0,0,0-1.37,1.37l1.937,1.937a.972.972,0,0,0,1.372,0l1.937-1.937a.969.969,0,0,0-1.37-1.37Z" transform="translate(-0.781 -0.437)"/>
    </g>
    <rect id="Rectangle_1810" data-name="Rectangle 1810" width="62" height="62" transform="translate(631 526)" fill="none"/>
  </g>
</svg>
