<?xml version="1.0" encoding="UTF-8"?>
<svg xmlns="http://www.w3.org/2000/svg" xmlns:xlink="http://www.w3.org/1999/xlink" width="62" height="62" viewBox="0 0 62 62" version="1.1">
<g id="surface1">
<path style=" stroke:none;fill-rule:nonzero;fill:#FF0000;fill-opacity:1;" d="M 56.363281 0 L 5.636719 0 C 2.527344 0 0 2.527344 0 5.636719 L 0 56.363281 C 0 59.472656 2.527344 62 5.636719 62 L 56.363281 62 C 59.472656 62 62 59.472656 62 56.363281 L 62 5.636719 C 62 2.527344 59.472656 0 56.363281 0 Z M 59.183594 56.363281 C 59.183594 57.917969 57.917969 59.183594 56.363281 59.183594 L 5.636719 59.183594 C 4.082031 59.183594 2.816406 57.917969 2.816406 56.363281 L 2.816406 14.089844 L 59.183594 14.089844 Z M 59.183594 11.273438 L 2.816406 11.273438 L 2.816406 5.636719 C 2.816406 4.082031 4.082031 2.816406 5.636719 2.816406 L 56.363281 2.816406 C 57.917969 2.816406 59.183594 4.082031 59.183594 5.636719 Z M 59.183594 11.273438 "/>
<path style=" stroke:none;fill-rule:nonzero;fill:#FF0000;fill-opacity:1;" d="M 8.453125 7.046875 C 8.453125 7.824219 7.824219 8.453125 7.046875 8.453125 C 6.265625 8.453125 5.636719 7.824219 5.636719 7.046875 C 5.636719 6.265625 6.265625 5.636719 7.046875 5.636719 C 7.824219 5.636719 8.453125 6.265625 8.453125 7.046875 Z M 8.453125 7.046875 "/>
<path style=" stroke:none;fill-rule:nonzero;fill:#FF0000;fill-opacity:1;" d="M 14.089844 7.046875 C 14.089844 7.824219 13.460938 8.453125 12.683594 8.453125 C 11.902344 8.453125 11.273438 7.824219 11.273438 7.046875 C 11.273438 6.265625 11.902344 5.636719 12.683594 5.636719 C 13.460938 5.636719 14.089844 6.265625 14.089844 7.046875 Z M 14.089844 7.046875 "/>
<path style=" stroke:none;fill-rule:nonzero;fill:#FF0000;fill-opacity:1;" d="M 19.726562 7.046875 C 19.726562 7.824219 19.097656 8.453125 18.316406 8.453125 C 17.539062 8.453125 16.910156 7.824219 16.910156 7.046875 C 16.910156 6.265625 17.539062 5.636719 18.316406 5.636719 C 19.097656 5.636719 19.726562 6.265625 19.726562 7.046875 Z M 19.726562 7.046875 "/>
<path style=" stroke:none;fill-rule:nonzero;fill:#FF0000;fill-opacity:1;" d="M 8.453125 47.910156 C 10.007812 47.910156 11.273438 46.644531 11.273438 45.089844 C 11.273438 44.078125 10.707031 43.230469 9.90625 42.734375 C 10.203125 38.777344 12.699219 29.976562 28.640625 29.625 C 29.136719 30.433594 29.984375 31 31 31 C 32.554688 31 33.816406 29.734375 33.816406 28.183594 C 33.816406 26.628906 32.554688 25.363281 31 25.363281 C 29.957031 25.363281 29.078125 25.960938 28.59375 26.804688 C 13.414062 27.144531 7.554688 34.976562 7.089844 42.675781 C 6.238281 43.160156 5.636719 44.042969 5.636719 45.089844 C 5.636719 46.644531 6.898438 47.910156 8.453125 47.910156 Z M 8.453125 47.910156 "/>
<path style=" stroke:none;fill-rule:nonzero;fill:#FF0000;fill-opacity:1;" d="M 40.398438 49.238281 C 40.550781 49.292969 40.707031 49.316406 40.863281 49.316406 C 41.28125 49.316406 41.691406 49.128906 41.964844 48.789062 L 47.175781 42.273438 L 54.953125 42.273438 C 55.550781 42.273438 56.085938 41.894531 56.285156 41.332031 C 56.480469 40.765625 56.304688 40.136719 55.835938 39.761719 L 41.746094 28.488281 C 41.316406 28.152344 40.742188 28.085938 40.253906 28.320312 C 39.765625 28.554688 39.453125 29.046875 39.453125 29.589844 L 39.453125 47.910156 C 39.453125 48.507812 39.832031 49.039062 40.398438 49.238281 Z M 42.273438 32.523438 L 50.9375 39.453125 L 46.5 39.453125 C 46.070312 39.453125 45.667969 39.648438 45.398438 39.984375 L 42.273438 43.890625 Z M 42.273438 32.523438 "/>
</g>
</svg>
